Package Week1 이재현
…
문제 5. confirmed_date를 날짜 자료형(Date)으로 바꾸세요.

mydata$confirmed_date <- as.Date(mydata$confirmed_date)

문제 6. 확진날짜(confirmed_date) 별 확진자 수에 대한 파생변수를 만드세요. (파생변수 이름 : confirmed_number)

mydata <- mydata %>%
  dplyr::group_by(confirmed_date) %>%
  dplyr::mutate(confirmed_number = n()) 

mydata %>%
  select(patient_id, confirmed_date,confirmed_number) %>%
  head(50)

## # A tibble: 50 x 3
## # Groups:   confirmed_date [16]
##    patient_id confirmed_date confirmed_number
##       <int64> <date>                    <int>
##  1 1000000001 2020-01-23                    1
##  2 1000000002 2020-01-30                    4
##  3 1000000003 2020-01-30                    4
##  4 1000000004 2020-01-30                    4
##  5 1000000005 2020-01-31                    3
##  6 1000000006 2020-01-31                    3
##  7 1000000007 2020-01-31                    3
##  8 1000000008 2020-02-02                    2
##  9 1000000009 2020-02-05                    4
## 10 1000000010 2020-02-05                    4
## # ... with 40 more rows
…
